{ "IdText":"ID",
    "BornText":"Born",

    "patientId":"0303870857",
    "patientIdSearchData":
    [
        "Kimberley Drinkwater",
        "0303870857",
        "26 Apr 1966 (50y)",
        "Unavailable",
        "Radiology",
        "Final",
        "Unavailable",
        "19 Mar 2016 01:56",
        "BCM",
        "1"
    ]
}