{
    "IdText":"ID",
    "BornText":"Born",
    "firstLastNameString":"cynthia watts",
    "firstLastNameData" :
    [
        "Cynthia Watts",
        "0304026215",
        "06 Jan 1953 (63y)",
        "Unavailable ",
        "2"

    ],
    "firstLastNameReportType":[
        "Radiology",
        "Radiology"
    ],
    "firstLastNameReportStatus":
    [
        "A",
        "A"
    ],

    "firstLastNameReportDescription":[
        "Unavailable",
        "Unavailable"
    ],
    "firstLastNameReportDate":
    [
        "06 Apr 2016 02:12",
        "06 Apr 2016 02:11"

    ]
}